<?xml version="1.0" encoding="UTF-8" ?>
<!DOCTYPE mapper
        PUBLIC "-//mybatis.org//DTD Mapper 3.0//EN"
        "http://mybatis.org/dtd/mybatis-3-mapper.dtd">
<mapper namespace="egovframework._gbe.repository.log.LogGuestDao">

    <insert id="insSysLog" parameterType="LogGuestDto">

        INSERT INTO TB_SYS_LOG (
                                LOG_NO
                               ,USID
                               ,URL
                               ,SYS_NM
                               ,SYS_DETAIL
                               ,MTH
                               ,IP
                               ,REGISTER_ID
                               ,REGIST_DT
                               ,UPDUSR_ID
                               ,UPDT_DT
        ) VALUES (
                NULL
                 ,#{usid}
                 ,#{url}
                 ,#{sysNm}
                 ,#{sysDetail}
                 ,#{mth}
                 ,#{ip}
                 ,#{registerId}
                 ,NOW()
                 ,#{updusrId}
                 ,NOW()
                 )

    </insert>
</mapper>