<?xml version="1.0" encoding="UTF-8"?>
<svg id="_레이어_2" data-name="레이어 2" xmlns="http://www.w3.org/2000/svg" viewBox="0 0 38 34.55">
  <defs>
    <style>
      .cls-1 {
        fill: #fff;
      }

      .cls-1, .cls-2 {
        stroke-width: 0px;
      }

      .cls-2 {
        fill: #ff5c5c;
      }
    </style>
  </defs>
  <g id="_레이어_4" data-name="레이어 4">
    <g>
      <path class="cls-2" d="m13.64,3.1c2.38-4.13,8.34-4.13,10.72,0l6.4,11.09,6.4,11.09c2.38,4.13-.6,9.29-5.36,9.29H6.2c-4.77,0-7.74-5.16-5.36-9.29l6.4-11.09L13.64,3.1Z"/>
      <path class="cls-1" d="m19,28.17c-.55,0-1-.45-1-1v-8.18h-1.3c-.55,0-1-.45-1-1s.45-1,1-1h1.3c1.1,0,2,.9,2,2v8.18c0,.55-.45,1-1,1Z"/>
      <circle class="cls-1" cx="19" cy="13.28" r="1.49"/>
    </g>
  </g>
</svg>