<svg xmlns="http://www.w3.org/2000/svg" xmlns:xlink="http://www.w3.org/1999/xlink" width="40" height="40" viewBox="0 0 40 40">
  <defs>
    <clipPath id="clip-path">
      <rect id="사각형_2216" data-name="사각형 2216" width="40" height="40" rx="10" fill="#dbe2ee"/>
    </clipPath>
  </defs>
  <g id="그룹_1115" data-name="그룹 1115" transform="translate(-411 -247)">
    <rect id="사각형_2215" data-name="사각형 2215" width="40" height="40" rx="10" transform="translate(411 247)" fill="#f6f8fb"/>
    <path id="패스_450" data-name="패스 450" d="M52.728,28.385a7.687,7.687,0,1,0,5.351,2.172,7.683,7.683,0,0,0-5.351-2.172" transform="translate(378.272 229.25)" fill="#dbe2ee"/>
    <g id="마스크_그룹_2" data-name="마스크 그룹 2" transform="translate(411 247)" clip-path="url(#clip-path)">
      <path id="패스_451" data-name="패스 451" d="M40.078,96.757A15.892,15.892,0,0,0,25.225,107a22.365,22.365,0,0,0,29.707,0A15.892,15.892,0,0,0,40.078,96.757" transform="translate(-20.077 -67.31)" fill="#dbe2ee"/>
    </g>
  </g>
</svg>
