<svg xmlns="http://www.w3.org/2000/svg" xmlns:xlink="http://www.w3.org/1999/xlink" width="14" height="14" viewBox="0 0 14 14">
  <defs>
    <clipPath id="clip-path">
      <rect id="사각형_2170" data-name="사각형 2170" width="12.495" height="14" transform="translate(0 0)" fill="#fc5c5c"/>
    </clipPath>
  </defs>
  <g id="그룹_1053" data-name="그룹 1053" transform="translate(-1705 -361)">
    <rect id="사각형_2171" data-name="사각형 2171" width="14" height="14" transform="translate(1705 361)" fill="#fff" opacity="0"/>
    <g id="그룹_1052" data-name="그룹 1052" transform="translate(1705.752 361)">
      <g id="그룹_1051" data-name="그룹 1051" transform="translate(0 0)" clip-path="url(#clip-path)">
        <path id="패스_437" data-name="패스 437" d="M11.889,1.762H8.678V1.3A1.3,1.3,0,0,0,7.378,0H5.117a1.3,1.3,0,0,0-1.3,1.3v.462H.607a.607.607,0,1,0,0,1.213H11.889a.607.607,0,0,0,0-1.213m-6.858,0V1.3a.087.087,0,0,1,.087-.087H7.378a.087.087,0,0,1,.087.087v.462Z" transform="translate(0 0)" fill="#fc5c5c"/>
        <path id="패스_438" data-name="패스 438" d="M17.1,20.126a.606.606,0,0,0-.64.572l-.474,8.481a.26.26,0,0,1-.26.245H9.871a.26.26,0,0,1-.259-.245L9.137,20.7a.607.607,0,0,0-1.211.068L8.4,29.246a1.474,1.474,0,0,0,1.471,1.391h5.856A1.474,1.474,0,0,0,17.2,29.246l.474-8.481a.606.606,0,0,0-.572-.639" transform="translate(-6.551 -16.637)" fill="#fc5c5c"/>
        <path id="패스_439" data-name="패스 439" d="M25.829,34.242V30.173a.607.607,0,1,0-1.213,0v4.069a.607.607,0,1,0,1.213,0" transform="translate(-20.35 -24.442)" fill="#fc5c5c"/>
        <path id="패스_440" data-name="패스 440" d="M41.7,34.242V30.173a.607.607,0,0,0-1.213,0v4.069a.607.607,0,1,0,1.213,0" transform="translate(-33.466 -24.442)" fill="#fc5c5c"/>
      </g>
    </g>
  </g>
</svg>
