<svg xmlns="http://www.w3.org/2000/svg" xmlns:xlink="http://www.w3.org/1999/xlink" width="230" height="136" viewBox="0 0 230 136">
  <defs>
    <clipPath id="clip-path">
      <rect id="사각형_796" data-name="사각형 796" width="61.409" height="69.521" fill="none"/>
    </clipPath>
  </defs>
  <g id="그룹_1135" data-name="그룹 1135" transform="translate(20796 -847)">
    <rect id="사각형_2243" data-name="사각형 2243" width="230" height="136" transform="translate(-20796 847)" fill="#fff" opacity="0"/>
    <g id="그룹_1134" data-name="그룹 1134" transform="translate(44.58 -163)">
      <path id="패스_458" data-name="패스 458" d="M-108.159-16.583v-.252h4.741V-19.1H-115.8v2.27h4.816v.277a7.613,7.613,0,0,1-5.6,7.187l1.412,2.219a9.171,9.171,0,0,0,5.674-5.22,8.685,8.685,0,0,0,5.371,4.489l1.336-2.194C-106.356-11.174-108.159-13.8-108.159-16.583Zm-5.321,14.3c0,2.749,2.95,4.362,7.716,4.362,4.728,0,7.628-1.614,7.641-4.362-.013-2.723-2.913-4.312-7.641-4.312C-110.529-6.6-113.479-5.009-113.479-2.285Zm2.8,0c0-1.387,1.79-2.118,4.917-2.118s4.867.731,4.867,2.118c0,1.412-1.753,2.156-4.867,2.169C-108.89-.129-110.68-.873-110.68-2.285Zm9.532-4.816h2.8v-5.825h3.177v-2.295h-3.177v-5.472h-2.8Zm10.989-11.852c-2.976-.013-4.917,3.1-4.917,8.12s1.942,8.158,4.917,8.145c3.026.013,4.993-3.114,5.018-8.145C-85.166-15.852-87.133-18.966-90.159-18.953Zm-2.32,8.12c-.013-3.556.87-5.485,2.32-5.472,1.513-.013,2.408,1.916,2.421,5.472-.013,3.568-.908,5.485-2.421,5.472C-91.609-5.349-92.491-7.265-92.479-10.834ZM-83.4.993h2.648V-9.573h2.421V2.1h2.7v-22.8h-2.7v8.8h-2.421v-8.4H-83.4Zm28.112-21.661h-2.824V-4.025h2.824ZM-74.252-9.4l1.463,2.219A9.408,9.408,0,0,0-67.2-12.637a9.081,9.081,0,0,0,5.459,5.056L-60.307-9.8a7.646,7.646,0,0,1-5.472-7.389v-2.219h-2.9v2.219A8.112,8.112,0,0,1-74.252-9.4Zm3.883,11.045h15.71V-.621H-67.545V-5.614h-2.824ZM-34.642-18.6H-51.083v2.244h13.617a49.14,49.14,0,0,1-.908,10.415l2.824.3a55.281,55.281,0,0,0,.908-10.768ZM-53.252-.848h20.779V-3.143H-42.812v-7.918h-2.774v7.918h-7.666Zm40.115-19.846h-2.8v5.245H-19.87v2.32h3.934v4.867h2.8Zm-19.14,10.616,1.437,2.219a9.136,9.136,0,0,0,5.6-5.22,8.95,8.95,0,0,0,5.346,4.741l1.412-2.169a7.347,7.347,0,0,1-5.371-6.733h4.716v-2.295H-31.444v2.295H-26.7A7.7,7.7,0,0,1-32.276-10.077Zm4.11,11.9h15.029V-7.3h-2.8v2.37h-9.431V-7.3h-2.8Zm2.8-2.27V-2.739h9.431V-.444ZM.677-18.8v-1.16h-2.95v1.16c0,2.887-3.2,5.775-8.019,6.405l1.11,2.27c3.833-.58,6.9-2.484,8.385-5.056,1.488,2.572,4.564,4.476,8.435,5.056l1.11-2.27C3.879-13.027.664-15.94.677-18.8ZM-11.2-5.841h8.952V2.1H.526V-5.841H9.578v-2.32H-11.2ZM28.94-20.693h-2.8v8.9H21.728v2.27h4.413V2.128h2.8ZM9.775-4.378l1.513,2.169A10.727,10.727,0,0,0,16.773-8.7a10.413,10.413,0,0,0,5.51,6.115L23.8-4.731a9.69,9.69,0,0,1-5.649-8.725v-1.185h4.791v-2.244H18.172v-3.329h-2.8v3.329H10.456v2.244h4.892v1.185A10.078,10.078,0,0,1,9.775-4.378ZM49.839-20.693H47.066V2.128h2.774ZM32.087-16.432H39.98v4.06H32.112v9.1H34.1a62.449,62.449,0,0,0,11.373-.807L45.225-6.37a61.936,61.936,0,0,1-10.238.807v-4.589h7.842V-18.7H32.087ZM60.5-15.221v-3.631H57.652v3.631c-.013,4.4-2.232,8.75-6.027,10.389l1.715,2.345a11.539,11.539,0,0,0,5.775-7.124,11.114,11.114,0,0,0,5.6,6.594l1.664-2.244C62.682-6.849,60.476-11.035,60.5-15.221ZM68.016,2.128H70.84V-20.693H68.016ZM84.679-17.566v-1.69H81.7v1.69c-.013,3.505-3.467,7.035-8.17,7.893l1.236,2.345A12.1,12.1,0,0,0,83.2-13.507a11.941,11.941,0,0,0,8.435,6.178L92.9-9.674C88.121-10.506,84.679-14.049,84.679-17.566ZM72.9-.8H93.732v-2.32H72.9Zm30.659-18.484H94.887V-8.11H96.4a42.86,42.86,0,0,0,8.322-.58l-.3-2.194a38.781,38.781,0,0,1-6.834.53V-12.7H102.7v-2.169H97.585v-2.143h5.976ZM98.039,1.825h15.382V-6.093H98.039Zm2.8-2.27V-3.874h9.809V-.444Zm2.849-12.407h2.572v5.623h2.673V-20.315h-2.673v5.195h-2.572Zm7.061,5.8h2.673V-20.693h-2.673Z" transform="translate(-20724 1143.612)" fill="#4269f1"/>
      <path id="패스_457" data-name="패스 457" d="M-36.975-6.522H-51.115v1.1h6.39v1.58c-2.959.122-4.687,1-4.679,2.558-.009,1.667,1.981,2.566,5.36,2.566,3.361,0,5.325-.9,5.342-2.566-.017-1.554-1.728-2.444-4.679-2.558v-1.58h6.407Zm-13.32-1.9.436,1.065c2.566-.262,4.862-1.187,5.813-2.758.943,1.571,3.247,2.5,5.813,2.758l.419-1.065c-2.881-.271-5.333-1.423-5.473-3.142h4.879v-1.117h-4.975v-1.554h-1.344v1.554h-4.923v1.117H-44.8C-44.962-9.848-47.406-8.7-50.295-8.425Zm2.287,7.14c-.017-.978,1.449-1.528,3.963-1.536,2.488.009,3.954.559,3.963,1.536-.009.978-1.475,1.519-3.963,1.5C-46.559.234-48.025-.307-48.008-1.285Zm16.738-9.584V-11.2h3.509v-1.1h-3.474v-1.973h-1.379V-12.3h-3.509v1.1h3.509v.332A5.329,5.329,0,0,1-36.507-6.1l.663,1.047A6.285,6.285,0,0,0-31.907-8.7,6.221,6.221,0,0,0-27.97-5.457l.663-1.065C-29.594-7.194-31.261-8.94-31.269-10.869Zm-2.776,9.322c-.009,1.8,1.973,2.828,5.2,2.828s5.2-1.03,5.2-2.828-1.981-2.837-5.2-2.828C-32.073-4.384-34.054-3.354-34.045-1.547Zm1.362,0c-.009-1.109,1.458-1.746,3.841-1.763C-26.46-3.293-25-2.655-25-1.547-25-.464-26.46.2-28.843.2S-32.692-.464-32.684-1.547Zm4.434-7.07h3.177v3.823h1.379V-14.2h-1.379v4.452h-3.177Zm18.38-5.569h-1.362v8.764H-9.87v-4.05h2.357v-1.152H-9.87ZM-21.252-6.609h1.24a36.6,36.6,0,0,0,7.315-.7l-.175-1.152a34.765,34.765,0,0,1-7,.7V-13.4h-1.379ZM-19.7,1.107H-9.87V-4.567H-19.7ZM-18.354-.01V-3.485H-11.2V-.01ZM5.088-6.924h-9.34v-4.888H4.931v-1.117H-5.631v7.123h4.574v4.015h-6.39V-.639H6.764V-1.791H.287V-5.806h4.8Zm14.486-5.709H8.594V-11.5H18.23v.594a31.875,31.875,0,0,1-.559,6.721l1.344.157a33.754,33.754,0,0,0,.559-6.878ZM7.11-.883H21.25V-2.018H15.839V-7.133H14.494v5.115H11.98V-7.133H10.619v5.115H7.11Zm28.7-5.831H21.666V-5.6h3.753v1.973H23.237v1.1h9.445V1.316h1.379V-3.624H32.036V-5.6h3.771Zm-12.57-4.155c0,1.868,2.121,2.985,5.5,2.968,3.361.017,5.473-1.1,5.482-2.968-.009-1.859-2.121-2.968-5.482-2.95C25.358-13.837,23.237-12.728,23.237-10.869Zm1.414,0c-.009-1.152,1.571-1.868,4.085-1.851,2.488-.017,4.076.7,4.085,1.851-.009,1.178-1.6,1.894-4.085,1.9C26.222-8.975,24.642-9.691,24.651-10.869ZM26.8-3.624V-5.6h3.893v1.973Zm14.713-7.245V-11.2h3.509v-1.1H41.547v-1.973H40.168V-12.3H36.659v1.1h3.509v.332A5.329,5.329,0,0,1,36.275-6.1l.663,1.047A6.285,6.285,0,0,0,40.875-8.7a6.221,6.221,0,0,0,3.937,3.238l.663-1.065C43.188-7.194,41.521-8.94,41.512-10.869ZM38.736-1.547c-.009,1.8,1.973,2.828,5.2,2.828s5.2-1.03,5.2-2.828-1.981-2.837-5.2-2.828C40.709-4.384,38.727-3.354,38.736-1.547Zm1.362,0c-.009-1.109,1.458-1.746,3.841-1.763,2.383.017,3.841.655,3.841,1.763C47.779-.464,46.321.2,43.939.2S40.089-.464,40.1-1.547Zm4.434-7.07h3.177v3.823h1.379V-14.2H47.709v4.452H44.532Z" transform="translate(-20724.449 1113.657)" fill="#6f7a91"/>
      <g id="그룹_1133" data-name="그룹 1133" transform="translate(-20759.559 1010)">
        <rect id="사각형_1961" data-name="사각형 1961" width="69.521" height="69.521" transform="translate(0 0)" fill="#fff" opacity="0"/>
        <g id="그룹_193" data-name="그룹 193" transform="translate(4.056 0)">
          <g id="그룹_192" data-name="그룹 192" clip-path="url(#clip-path)">
            <path id="패스_156" data-name="패스 156" d="M304.178,3.013c-1.4-3.008-5.83-3.917-9.9-2.027s-6.254,5.861-4.861,8.868,5.834,3.917,9.911,2.027,6.25-5.859,4.855-8.867" transform="translate(-256.098 0)" fill="#de0d09"/>
            <path id="패스_157" data-name="패스 157" d="M36.979,170.645c1.415-.506-3.537,1.863-4.811,2.532a49.18,49.18,0,0,1-12.257,3.951c-7.263,1.551-13.524.45-17.057-3.666C-4.215,165.228,2.3,148.05,17.4,135.088c7.548-6.482,15.816-10.681,23.079-12.229a24.564,24.564,0,0,1,9.927-.295s8.165,1.36,4.182,11.372c0,0-10.374,22.556-39.554,35,0,0,18.718-13.128,27.747-29.514,0,0,7.167-11.81-3.8-11.6,0,0-4.663-.035-11.872,4.171A41.021,41.021,0,0,0,8.358,152.853S.824,170.831,21.7,172.728a40.066,40.066,0,0,0,15.283-2.083" transform="translate(0.001 -108.279)" fill="#003a88"/>
            <path id="패스_158" data-name="패스 158" d="M357.924,268.536c-1.168,1.743-3.453,5.068-5.752,7.96,2.671.217,5.3.933,3.424,6.144,0,0-3.091,8-12.112,16.1,0,0,15.239-8.869,20.707-20.527,0,0,6.371-12.313-6.267-9.672" transform="translate(-304.388 -237.641)" fill="#309024"/>
          </g>
        </g>
      </g>
    </g>
  </g>
</svg>
