<svg xmlns="http://www.w3.org/2000/svg" xmlns:xlink="http://www.w3.org/1999/xlink" width="18" height="18" viewBox="0 0 18 18">
  <defs>
    <clipPath id="clip-path">
      <rect id="사각형_2267" data-name="사각형 2267" width="13.87" height="18" fill="none"/>
    </clipPath>
  </defs>
  <g id="그룹_1165" data-name="그룹 1165" transform="translate(21913 -4214)">
    <rect id="사각형_1939" data-name="사각형 1939" width="18" height="18" transform="translate(-21913 4214)" fill="#d9d9d9" opacity="0"/>
    <g id="그룹_1164" data-name="그룹 1164" transform="translate(-21910.934 4214)">
      <g id="그룹_1163" data-name="그룹 1163" clip-path="url(#clip-path)">
        <path id="패스_472" data-name="패스 472" d="M5.4,17.175l-4.245-6.41a6.935,6.935,0,1,1,11.563,0l-4.245,6.41a1.843,1.843,0,0,1-3.073,0" fill="#ff5c5c"/>
        <path id="패스_473" data-name="패스 473" d="M10.873,6.744A3.938,3.938,0,1,1,6.935,2.806a3.938,3.938,0,0,1,3.938,3.938" fill="#fff"/>
        <path id="패스_474" data-name="패스 474" d="M8.472,17.175l4.245-6.41A6.936,6.936,0,0,0,6.936,0V2.806a3.938,3.938,0,0,1,0,7.876V18a1.828,1.828,0,0,0,1.536-.825" fill="#ed4343"/>
        <path id="패스_475" data-name="패스 475" d="M10.873,6.744A3.938,3.938,0,0,0,6.935,2.806v7.876a3.938,3.938,0,0,0,3.938-3.938" fill="#e5e5e5"/>
      </g>
    </g>
  </g>
</svg>
