<svg xmlns="http://www.w3.org/2000/svg" xmlns:xlink="http://www.w3.org/1999/xlink" width="100" height="100" viewBox="0 0 100 100">
  <defs>
    <clipPath id="clip-path">
      <rect id="사각형_2070" data-name="사각형 2070" width="100" height="89.615" fill="none"/>
    </clipPath>
  </defs>
  <g id="그룹_1013" data-name="그룹 1013" transform="translate(-1113 -678)">
    <rect id="사각형_2072" data-name="사각형 2072" width="100" height="100" transform="translate(1113 678)" fill="#fff" opacity="0"/>
    <g id="그룹_1011" data-name="그룹 1011" transform="translate(1113 683.193)">
      <g id="그룹_1010" data-name="그룹 1010" clip-path="url(#clip-path)">
        <path id="패스_374" data-name="패스 374" d="M67.9,18.9H27.591V12.985a1.659,1.659,0,0,1,1.659-1.659H66.24A1.659,1.659,0,0,1,67.9,12.985Z" transform="translate(-12.334 -5.063)" fill="#cfdfff"/>
        <path id="패스_375" data-name="패스 375" d="M65.339,142.237V122.463A1.659,1.659,0,0,0,63.68,120.8H53.423a1.658,1.658,0,0,0-1.659,1.659v19.774Z" transform="translate(-23.141 -54.005)" fill="#cfdfff"/>
        <path id="패스_376" data-name="패스 376" d="M16.357,109.638a6.536,6.536,0,1,0-11.322,0,8.2,8.2,0,1,0,11.322,0" transform="translate(-1.118 -44.635)" fill="#cfdfff"/>
        <path id="패스_377" data-name="패스 377" d="M38.007,42.349H46.23a1.382,1.382,0,1,0,0-2.765H38.007a1.382,1.382,0,0,0,0,2.765" transform="translate(-16.373 -17.696)" fill="#0b45d8"/>
        <path id="패스_378" data-name="패스 378" d="M72.964,42.349h8.222a1.382,1.382,0,1,0,0-2.765H72.964a1.382,1.382,0,0,0,0,2.765" transform="translate(-32 -17.696)" fill="#0b45d8"/>
        <path id="패스_379" data-name="패스 379" d="M38.007,56.112H46.23a1.382,1.382,0,1,0,0-2.765H38.007a1.382,1.382,0,1,0,0,2.765" transform="translate(-16.373 -23.848)" fill="#0b45d8"/>
        <path id="패스_380" data-name="패스 380" d="M72.964,56.112h8.222a1.382,1.382,0,1,0,0-2.765H72.964a1.382,1.382,0,1,0,0,2.765" transform="translate(-32 -23.848)" fill="#0b45d8"/>
        <path id="패스_381" data-name="패스 381" d="M38.007,69.876H46.23a1.382,1.382,0,0,0,0-2.765H38.007a1.382,1.382,0,0,0,0,2.765" transform="translate(-16.373 -30.002)" fill="#0b45d8"/>
        <path id="패스_382" data-name="패스 382" d="M72.964,69.876h8.222a1.382,1.382,0,0,0,0-2.765H72.964a1.382,1.382,0,0,0,0,2.765" transform="translate(-32 -30.002)" fill="#0b45d8"/>
        <path id="패스_383" data-name="패스 383" d="M38.007,83.641H46.23a1.382,1.382,0,0,0,0-2.765H38.007a1.382,1.382,0,0,0,0,2.765" transform="translate(-16.373 -36.155)" fill="#0b45d8"/>
        <path id="패스_384" data-name="패스 384" d="M72.964,83.641h8.222a1.382,1.382,0,0,0,0-2.765H72.964a1.382,1.382,0,0,0,0,2.765" transform="translate(-32 -36.155)" fill="#0b45d8"/>
        <path id="패스_385" data-name="패스 385" d="M38.007,97.4H46.23a1.382,1.382,0,0,0,0-2.765H38.007a1.382,1.382,0,0,0,0,2.765" transform="translate(-16.373 -42.308)" fill="#0b45d8"/>
        <path id="패스_386" data-name="패스 386" d="M72.964,97.4h8.222a1.382,1.382,0,0,0,0-2.765H72.964a1.382,1.382,0,0,0,0,2.765" transform="translate(-32 -42.308)" fill="#0b45d8"/>
        <path id="패스_387" data-name="패스 387" d="M132.765,80.876H117.619a1.382,1.382,0,1,0,0,2.765h15.146a1.382,1.382,0,0,0,0-2.765" transform="translate(-51.963 -36.155)" fill="#0b45d8"/>
        <path id="패스_388" data-name="패스 388" d="M132.765,94.64H117.619a1.382,1.382,0,1,0,0,2.765h15.146a1.382,1.382,0,0,0,0-2.765" transform="translate(-51.963 -42.308)" fill="#0b45d8"/>
        <path id="패스_389" data-name="패스 389" d="M132.765,108.4H117.619a1.382,1.382,0,1,0,0,2.765h15.146a1.382,1.382,0,0,0,0-2.765" transform="translate(-51.963 -48.461)" fill="#0b45d8"/>
        <path id="패스_390" data-name="패스 390" d="M132.765,122.168H117.619a1.382,1.382,0,0,0,0,2.765h15.146a1.382,1.382,0,0,0,0-2.765" transform="translate(-51.963 -54.614)" fill="#0b45d8"/>
        <path id="패스_391" data-name="패스 391" d="M98.618,86.85H59.945v-47.1l25.447-9.594a.829.829,0,0,1,1.122.776V81.681a1.382,1.382,0,0,0,2.765,0V30.93a3.594,3.594,0,0,0-4.862-3.363L59.945,36.793V15.5a3.044,3.044,0,0,0-3-3.039V7.922A3.045,3.045,0,0,0,53.906,4.88H36.793v-3.5a1.382,1.382,0,1,0-2.765,0v3.5H16.915a3.045,3.045,0,0,0-3.041,3.041V12.46a3.044,3.044,0,0,0-3,3.039V49.057a1.382,1.382,0,1,0,2.765,0V15.5a.277.277,0,0,1,.276-.276H56.9a.277.277,0,0,1,.276.276V86.85h-13.6V68.458a3.044,3.044,0,0,0-3.041-3.041H30.282a3.045,3.045,0,0,0-3.041,3.041V86.85H10.961V80.388a9.585,9.585,0,0,0,8.2-9.467A9.473,9.473,0,0,0,16.9,64.753a7.919,7.919,0,1,0-14.643,0A9.473,9.473,0,0,0,0,70.921a9.585,9.585,0,0,0,8.2,9.467V86.85H1.538a1.382,1.382,0,0,0,0,2.765h97.08a1.382,1.382,0,0,0,0-2.765M16.639,12.458V7.922a.277.277,0,0,1,.276-.276H53.906a.277.277,0,0,1,.276.276v4.536ZM2.765,70.921A6.753,6.753,0,0,1,4.873,66a1.382,1.382,0,0,0,.242-1.689,5.153,5.153,0,1,1,8.927,0A1.383,1.383,0,0,0,14.284,66a6.755,6.755,0,0,1,2.108,4.919,6.825,6.825,0,0,1-5.431,6.672V70.766a1.382,1.382,0,1,0-2.765,0v6.827a6.825,6.825,0,0,1-5.431-6.672M30.006,86.85V68.458a.277.277,0,0,1,.276-.276H40.539a.277.277,0,0,1,.276.276V86.85Z" fill="#0b45d8"/>
      </g>
    </g>
  </g>
</svg>
