<svg xmlns="http://www.w3.org/2000/svg" width="21" height="21" viewBox="0 0 21 21">
  <g id="그룹_1140" data-name="그룹 1140" transform="translate(17785 -3730)">
    <rect id="사각형_2255" data-name="사각형 2255" width="21" height="21" transform="translate(-17785 3730)" fill="#fff" opacity="0"/>
    <rect id="사각형_2252" data-name="사각형 2252" width="11" height="1" transform="translate(-17780 3740)" fill="#9199b1"/>
  </g>
</svg>
